{
  "project_info": {
    "project_number": "630871047393",
    "firebase_url": "https://instagram-47823.firebaseio.com",
    "project_id": "instagram-47823",
    "storage_bucket": "instagram-47823.appspot.com"
  },
  "client": [
    {
      "client_info": {
        "mobilesdk_app_id": "1:630871047393:android:c89d0d8402bf2ee0848ba0",
        "android_client_info": {
          "package_name": "com.example.instagramtest"
        }
      },
      "oauth_client": [
        {
          "client_id": "630871047393-05o7dhuogcknlnoo0cn9og8n76njrr0h.apps.googleusercontent.com",
          "client_type": 3
        }
      ],
      "api_key": [
        {
          "current_key": "AIzaSyCP-GZohC6M1L04SzkyIVRNWOUb7PohLBs"
        }
      ],
      "services": {
        "appinvite_service": {
          "other_platform_oauth_client": [
            {
              "client_id": "630871047393-05o7dhuogcknlnoo0cn9og8n76njrr0h.apps.googleusercontent.com",
              "client_type": 3
            }
          ]
        }
      }
    }
  ],
  "configuration_version": "1"
}